{
  "packages": {
    "iron-router": {},
    "accounting": {},
    "moment": {},
    "spin": {},
    "livestamp": {},
    "bootstrap3-datepicker": {},
    "accounts-ui-bootstrap-3": {},
    "bootstrap-3": {},
    "streams": {},
    "moment-timezone": {},
    "reactive-table": {},
    "percolatestudio-migrations": {},
    "roles": {},
    "fast-render": {},
    "json2csv": {},
    "uploader": {},
    "synced-cron": {},
    "npm": {},
    "kadira": {}
  }
}
